C:\Users\antho\Documents\NetBeansProjects\ReservaJEE\ReservaJEE-ejb\src\main\java\com\reserva\session\AbstractFacade.java
C:\Users\antho\Documents\NetBeansProjects\ReservaJEE\ReservaJEE-ejb\src\main\java\com\reserva\entidades\Reserva.java
C:\Users\antho\Documents\NetBeansProjects\ReservaJEE\ReservaJEE-ejb\src\main\java\com\reserva\session\ReservaFacade.java
C:\Users\antho\Documents\NetBeansProjects\ReservaJEE\ReservaJEE-ejb\src\main\java\com\reserva\session\ReservaFacadeLocal.java
